[
  {
     "id":1,
     "text":"Folder 1",
     "state":{
        "selected":false
     }
  },
  {
     "id":2,
     "text":"Folder 2",
     "state":{
        "selected":false
     }
  },
  {
     "id":2,
     "text":"Folder 3",
     "state":{
        "selected":false
     }
  },
  {
     "id":2,
     "text":"Folder 4",
     "state":{
        "selected":false
     }
  },
  {
     "id":2,
     "text":"Folder 5",
     "state":{
        "selected":false
     }
  },
  {
     "id":2,
     "text":"Folder 6",
     "state":{
        "selected":false
     }
  }  
]